{
	"pages": [ //pages数组中第一项表示应用启动页，参考：https://uniapp.dcloud.io/collocation/pages
		{
			"path": "pages/index/index",
			"style": {
				"navigationStyle": "custom",
				"enablePullDownRefresh": true
			}
		},
		{
			"path": "pages/login/login",
			"style": {
				"navigationBarTitleText": "",
				"enablePullDownRefresh": false
			}
		},
		{
			"path": "pages/post/post",
			"style": {
				"navigationBarTitleText": "发表动态",
				"enablePullDownRefresh": false
			}

		}, {
			"path": "components/tabbar/tabbar",
			"style": {
				"navigationBarTitleText": "",
				"enablePullDownRefresh": false
			}

		}, {
			"path": "pages/articlelist/articlelist",
			"style": {
				"navigationStyle": "custom",
				"enablePullDownRefresh": true
			}

		}, {
			"path": "pages/my/my",
			"style": {
				"navigationStyle": "custom",
				"enablePullDownRefresh": false
			}

		}
	    ,{
            "path" : "pages/articleinfo/articleinfo",
            "style" :                                                                                    
            {
                "navigationBarTitleText": "详情",
                "enablePullDownRefresh": false
            }
            
        }
        ,{
            "path" : "pages/article/article",
            "style" :                                                                                    
            {
                "navigationBarTitleText": "详情",
                "enablePullDownRefresh": false
            }
            
        }
        ,{
            "path" : "pages/commentpost/commentpost",
            "style" :                                                                                    
            {
                "navigationBarTitleText": "评论",
                "enablePullDownRefresh": false
            }
            
        }
        ,{
            "path" : "pages/topicinfo/topicinfo",
            "style" :                                                                                    
            {
                "navigationBarTitleText": "专题",
                "enablePullDownRefresh": false
            }
            
        }
        ,{
            "path" : "pages/member/member",
            "style" :                                                                                    
            {
                "navigationBarTitleText": "我的服务",
                "enablePullDownRefresh": false
            }
            
        }
        ,{
            "path" : "pages/memberinfo/memberinfo",
            "style" :                                                                                    
            {
                "navigationBarTitleText": "我的信息",
                "enablePullDownRefresh": false
            }
            
        }
        ,{
            "path" : "pages/accountsafe/accountsafe",
            "style" :                                                                                    
            {
                "navigationBarTitleText": "账号安全",
                "enablePullDownRefresh": false
            }
            
        }
        ,{
            "path" : "pages/mymessage/mymessage",
            "style" :                                                                                    
            {
                "navigationBarTitleText": "我的消息",
                "enablePullDownRefresh": false
            }
            
        }
        ,{
            "path" : "pages/approve/approve",
            "style" :                                                                                    
            {
                "navigationBarTitleText": "车主认证",
                "enablePullDownRefresh": false
            }
            
        }
        ,{
            "path" : "pages/audit/audit",
            "style" :                                                                                    
            {
                "navigationBarTitleText": "车主认证",
                "enablePullDownRefresh": false
            }
            
        }
        ,{
            "path" : "pages/audits/audits",
            "style" :                                                                                    
            {
                "navigationBarTitleText": "车主认证",
                "enablePullDownRefresh": false
            }
            
        }
        ,{
            "path" : "pages/carera/carera",
            "style" :                                                                                    
            {
                "navigationBarTitleText": "车主认证",
                "enablePullDownRefresh": false
            }
            
        }
        ,{
            "path" : "pages/carinfo/carinfo",
            "style" :                                                                                    
            {
                "navigationBarTitleText": "车主认证",
                "enablePullDownRefresh": false
            }
            
        }
        ,{
            "path" : "pages/carlist/carlist",
            "style" :                                                                                    
            {
                "navigationBarTitleText": "车主认证",
                "enablePullDownRefresh": false
            }
            
        }
        ,{
            "path" : "pages/motormaster/motormaster",
            "style" :                                                                                    
            {
                "navigationBarTitleText": "车主认证",
                "enablePullDownRefresh": false
            }
            
        }
        ,{
            "path" : "pages/models/models",
            "style" :                                                                                    
            {
                "navigationBarTitleText": "车主认证",
                "enablePullDownRefresh": false
            }
            
        }
        ,{
            "path" : "pages/mobileinfo/mobileinfo",
            "style" :                                                                                    
            {
                "navigationBarTitleText": "绑定手机号",
                "enablePullDownRefresh": false
            }
            
        }
        ,{
            "path" : "pages/start/start",
            "style" :                                                                                    
            {
                "navigationBarTitleText": "",
                "enablePullDownRefresh": false
            }
            
        }
        ,{
            "path" : "pages/commentinfo/commentinfo",
            "style" :                                                                                    
            {
                "navigationBarTitleText": "评论详情",
                "enablePullDownRefresh": false
            }
            
        }
        ,{
            "path" : "pages/webpage/webpage",
            "style" :                                                                                    
            {
                "navigationBarTitleText": "",
                "enablePullDownRefresh": false
            }
            
        }
        ,{
            "path" : "pages/webview/webview",
            "style" :                                                                                    
            {
                "navigationBarTitleText": "",
                "enablePullDownRefresh": false
            }
            
        }
        ,{
            "path" : "pages/bindingmobile/bindingmobile",
            "style" :                                                                                    
            {
               "navigationStyle": "custom"
            }
            
        }
    ],
	"globalStyle": {
		"navigationBarTextStyle": "black",
		"navigationBarTitleText": "凌志范儿",
		"navigationBarBackgroundColor": "#FFFFFF",
		"backgroundColor": "#FFFFFF"
	},
	"tabBar": {
		"selectedColor": "#5602AC",
		"color": "#666666",
		"backgroundColor": "#FFFFFF",
		"borderStyle": "black",
		"list": [{
				"pagePath": "pages/index/index",
				"text": "精",
				"iconPath": "/static/images/icon/index.png",
				"selectedIconPath": "/static/images/icon/index_select.png"
			},
			{
				"pagePath": "pages/articlelist/articlelist",
				"text": "阅",
				"iconPath": "/static/images/icon/content.png",
				"selectedIconPath": "/static/images/icon/content_select.png"
			},
			{
				"pagePath": "pages/my/my",
				"text": "我",
				"iconPath": "/static/images/icon/my.png",
				"selectedIconPath": "/static/images/icon/my_select.png"
			}
		]
	},
	"permission": {
		"scope.userLocation": {
			"desc": "你的位置信息将用于小程序位置接口的效果展示"
		}
	}
}
